wave.vcd
$date
     Mar 22, 2024       17:02:43
$end

$version
 SystemC 3.0.0_pub_rev_20231124-Accellera --- Mar 21 2024 17:57:45
$end

$timescale
     1 ns
$end

$scope module SystemC $end
$var wire    1  aaaaa  clk       $end
$var wire    1  aaaab  rst_n       $end
$var wire   32  aaaac  matrix(0,0) [31:0]  $end
$var wire   32  aaaad  matrix(0,1) [31:0]  $end
$var wire   32  aaaae  matrix(0,2) [31:0]  $end
$var wire   32  aaaaf  matrix(0,3) [31:0]  $end
$var wire   32  aaaag  matrix(1,0) [31:0]  $end
$var wire   32  aaaah  matrix(1,1) [31:0]  $end
$var wire   32  aaaai  matrix(1,2) [31:0]  $end
$var wire   32  aaaaj  matrix(1,3) [31:0]  $end
$var wire   32  aaaak  matrix(2,0) [31:0]  $end
$var wire   32  aaaal  matrix(2,1) [31:0]  $end
$var wire   32  aaaam  matrix(2,2) [31:0]  $end
$var wire   32  aaaan  matrix(2,3) [31:0]  $end
$var wire   32  aaaao  matrix(3,0) [31:0]  $end
$var wire   32  aaaap  matrix(3,1) [31:0]  $end
$var wire   32  aaaaq  matrix(3,2) [31:0]  $end
$var wire   32  aaaar  matrix(3,3) [31:0]  $end
$var wire   32  aaaas  matrix(4,0) [31:0]  $end
$var wire   32  aaaat  matrix(4,1) [31:0]  $end
$var wire   32  aaaau  matrix(4,2) [31:0]  $end
$var wire   32  aaaav  matrix(4,3) [31:0]  $end
$var wire   32  aaaaw  matrix(5,0) [31:0]  $end
$var wire   32  aaaax  matrix(5,1) [31:0]  $end
$var wire   32  aaaay  matrix(5,2) [31:0]  $end
$var wire   32  aaaaz  matrix(5,3) [31:0]  $end
$var wire   32  aaaba  matrix(6,0) [31:0]  $end
$var wire   32  aaabb  matrix(6,1) [31:0]  $end
$var wire   32  aaabc  matrix(6,2) [31:0]  $end
$var wire   32  aaabd  matrix(6,3) [31:0]  $end
$var wire   32  aaabe  matrix(7,0) [31:0]  $end
$var wire   32  aaabf  matrix(7,1) [31:0]  $end
$var wire   32  aaabg  matrix(7,2) [31:0]  $end
$var wire   32  aaabh  matrix(7,3) [31:0]  $end
$var wire   32  aaabi  vec(0,) [31:0]  $end
$var wire   32  aaabj  vec(1,) [31:0]  $end
$var wire   32  aaabk  vec(2,) [31:0]  $end
$var wire   32  aaabl  vec(3,) [31:0]  $end
$var wire   64  aaabm  vec_o(0,) [63:0]  $end
$var wire   64  aaabn  vec_o(1,) [63:0]  $end
$var wire   64  aaabo  vec_o(2,) [63:0]  $end
$var wire   64  aaabp  vec_o(3,) [63:0]  $end
$var wire   64  aaabq  vec_o(4,) [63:0]  $end
$var wire   64  aaabr  vec_o(5,) [63:0]  $end
$var wire   64  aaabs  vec_o(6,) [63:0]  $end
$var wire   64  aaabt  vec_o(7,) [63:0]  $end
$upscope $end
$enddefinitions  $end

$comment
All initial values are dumped below at time 0 sec = 0 timescale units.
$end

$dumpvars
1aaaaa
1aaaab
b100100000100011 aaaac
b110110111110001 aaaad
b11100100001100 aaaae
b101010011011110 aaaaf
b1100010111110 aaaag
b101101011110001 aaaah
b111100111110 aaaai
b11100110110011 aaaaj
b110011110000100 aaaak
b100000110111011 aaaal
b10011001 aaaam
b10110100010010 aaaan
b100101011100001 aaaao
b10011011101001 aaaap
b100100100 aaaaq
b11101001101 aaaar
b11110101101100 aaaas
b111101011 aaaat
b11000001011110 aaaau
b100110111001000 aaaav
b10110011010110 aaaaw
b101110110011 aaaax
b100010000001101 aaaay
b110010001000011 aaaaz
b111001010101110 aaaba
b10111010100110 aaabb
b100100100011100 aaabc
b110011010111011 aaabd
b110100101010010 aaabe
b1001011011011 aaabf
b100110100000110 aaabg
b100001010001011 aaabh
b101111110010000 aaabi
b1010100111100 aaabj
b100110110110111 aaabk
b10011010100110 aaabl
b1000010001011010111100110110100 aaabm
b11110000111100000100111000000 aaabn
b110011000101000100110100011111 aaabo
b100000101000001010011111010110 aaabp
b110001100000110101001110110110 aaabq
b110101100000001001001100010001 aaabr
b1010100011000011010111100001110 aaabs
b1001010010011101011001111100000 aaabt
$end

#1
0aaaab
b0 aaabm
b0 aaabn
b0 aaabo
b0 aaabp
b0 aaabq
b0 aaabr
b0 aaabs
b0 aaabt

#2
1aaaab

#5
0aaaaa
b111000000011111 aaaac
b1101011010100 aaaad
b110101110001001 aaaae
b10001011101110 aaaaf
b101110100000011 aaaag
b110001111001011 aaaah
b1100001010 aaaai
b100101101000000 aaaaj
b111101001011010 aaaak
b110101111111100 aaaal
b11000000011100 aaaam
b101100001111000 aaaan
b111011001111101 aaaao
b111111110010110 aaaap
b101111011011 aaaaq
b110101100110110 aaaar
b100010100001001 aaaas
b111111111110101 aaaat
b101011010101110 aaaau
b101110011111101 aaaav
b1001000111000 aaaaw
b100111001000101 aaaax
b11100110010 aaaay
b11111000010010 aaaaz
b11101100100101 aaaba
b11001000111011 aaabb
b100100000 aaabc
b1101001001001 aaabd
b1111000011111 aaabe
b10001000010011 aaabf
b111010110011010 aaabg
b101111100110010 aaabh
b110111001011101 aaabi
b10011000001101 aaabj
b10001101010000 aaabk
b11101111110110 aaabl

#10
1aaaaa
b1001011010101101010001010001011 aaabm
b1001000111110011010100000000110 aaabn
b1100000001001111000101010001110 aaabo
b1100000110010101001110101011011 aaabp
b1010010100001000101101000110100 aaabq
b100011000001001100011011000101 aaabr
b100111010001101000000010010110 aaabs
b111000100100011001111001100110 aaabt

#15
0aaaaa
b11101010011110 aaaac
b10111001000000 aaaad
b1010110100001 aaaae
b111001111011010 aaaaf
b111100101111101 aaaag
b1001101100110 aaaah
b101010000100010 aaaai
b101100010110000 aaaaj
b101111101001001 aaaak
b1110011010000 aaaal
b11111011110110 aaaam
b10011011001010 aaaan
b110111011100 aaaao
b11011001101011 aaaap
b100000100010 aaaaq
b11011010011001 aaaar
b100110010101101 aaaas
b110011011000100 aaaat
b101100110010001 aaaau
b100100000010 aaaav
b11000101001111 aaaaw
b100001000110000 aaaax
b100000010011101 aaaay
b111101110111001 aaaaz
b101111000010100 aaaba
b111111010110111 aaabb
b1001011100001 aaabc
b101011101110010 aaabd
b100110111110010 aaabe
b110000000110010 aaabf
b111100110001011 aaabg
b1001110011101 aaabh
b100100101000100 aaabi
b10110000111011 aaabj
b1001000011111 aaabk
b111000001001001 aaabl

#20
1aaaaa
b1001101000111001010001001100001 aaabm
b1010010111110011100100100000100 aaabn
b110101101101111101111110111000 aaabo
b100101111001000011101011011000 aaabp
b110001111111011000111001000001 aaabq
b1010100011000110011010111010000 aaabr
b1011000100000100100010000111110 aaabs
b111000001000100011111101101000 aaabt

#25
0aaaaa
b110100100101100 aaaac
b11001111101010 aaaad
b110101011010110 aaaae
b10110001001001 aaaaf
b100101010000000 aaaag
b10001111001001 aaaah
b10001111110 aaaai
b11110001100001 aaaaj
b1100001111110 aaaak
b100100011001100 aaaal
b100001000101101 aaaam
b10111111111111 aaaan
b1011011000101 aaaao
b101011101010011 aaaap
b101010011011100 aaaaq
b110110001101001 aaaar
b110100010011001 aaaas
b110000010111111 aaaat
b11011010001110 aaaau
b10100010001111 aaaav
b11110011010101 aaaaw
b101110001100111 aaaax
b110101100110 aaaay
b11101001100001 aaaaz
b1001111101001 aaaba
b11110011010110 aaabb
b111100110000011 aaabc
b10001011001101 aaabd
b100000010000000 aaabe
b111110111111 aaabf
b111010111101111 aaabg
b111110111010001 aaabh
b101110110110010 aaabi
b10111100010100 aaabj
b100011001010111 aaabk
b10011000011110 aaabl

#30
1aaaaa
b1010011111111001111101000101000 aaabm
b101100000100100111001111100100 aaabn
b101111101011100011011010111001 aaabo
b111111110110011011111010001000 aaabp
b1001101000110100100100001010010 aaabq
b110011101000010111110100101110 aaabr
b111001000010110010011101000101 aaabs
b1001101101000111101011110100011 aaabt

#35
0aaaaa
b101111010011101 aaaac
b111111101001111 aaaad
b110101111001011 aaaae
b101110111010101 aaaaf
b100100010011100 aaaag
b100100101001010 aaaah
b111111001001 aaaai
b110101011010100 aaaaj
b1100100010110 aaaak
b11001110111 aaaal
b111000010010 aaaam
b101101010011111 aaaan
b110000101110010 aaaao
b100010000000010 aaaap
b101111100011110 aaaaq
b100110011010100 aaaar
b110101101110010 aaaas
b1100011010111 aaaat
b10100000110011 aaaau
b101111110100100 aaaav
b11001011100110 aaaaw
b110101111101000 aaaax
b111100001110100 aaaay
b10000001011001 aaaaz
b100000000011101 aaaba
b101000000111001 aaabb
b10010010011110 aaabc
b1001001111110 aaabd
b111000111110000 aaabe
b101010000101100 aaabf
b10101100001100 aaabg
b110101 aaabh
b1110000100 aaabi
b1100101010011 aaabj
b1000111110100 aaabk
b11111001111 aaabl

#40
1aaaaa
b11000010100001000100001001000 aaabm
b1100100111001101001101101110 aaabn
b100101111000010001110100110 aaabo
b10001000101000110010101110010 aaabp
b1001101010110100111010110101 aaabq
b10100110011101010111001010111 aaabr
b1011111100101100001111101001 aaabs
b1100111010101001011101001111 aaabt

#45
0aaaaa
b110011100110010 aaaac
b101011111010011 aaaad
b100100111110111 aaaae
b10101100000000 aaaaf
b110110100100010 aaaag
b100010110001111 aaaah
b100010000101011 aaaai
b1011011010100 aaaaj
b1101011110100 aaaak
b100101110101 aaaal
b101000001111000 aaaam
b111111101100001 aaaan
b111011001100 aaaao
b11011111100110 aaaap
b1010010000001 aaaaq
b11101010001101 aaaar
b100011011001111 aaaas
b1100111011001 aaaat
b100000010000111 aaaau
b111111110111110 aaaav
b111010011 aaaaw
b101100100011101 aaaax
b111101101000100 aaaay
b110001111011 aaaaz
b111010010000 aaaba
b10010100101010 aaabb
b101100100001110 aaabc
b101000000000101 aaabd
b11101000101101 aaabe
b11011111100101 aaabf
b111011001011111 aaabg
b110000010101 aaabh
b110000001001000 aaabi
b1110111000000 aaabj
b1100001010000 aaabk
b11100000000111 aaabl

#50
1aaaaa
b1000001011100111111110110000000 aaabm
b111100100110010010010100001100 aaabn
b101110110000011000011010000111 aaabo
b11010110100101001011000001011 aaabp
b111111101110000110001001011010 aaabq
b11001011110101110011010110101 aaabr
b100011110001000010011010000011 aaabs
b101010010000101110101110101011 aaabt

#55
0aaaaa
b111011100111011 aaaac
b100110101010100 aaaad
b100100001101010 aaaae
b101100101101000 aaaaf
b11000110011 aaaag
b11100111001110 aaaah
b11000000000100 aaaai
b100101011010100 aaaaj
b111001010000010 aaaak
b11101110110001 aaaal
b1011110010110 aaaam
b10110011110111 aaaan
b10010100011111 aaaao
b100110010000101 aaaap
b101111001110011 aaaaq
b11111101001010 aaaar
b1110100011000 aaaas
b101000100111110 aaaat
b100011100001110 aaaau
b101001001010 aaaav
b110001001110000 aaaaw
b110110101101001 aaaax
b111001111011001 aaaay
b101111011010000 aaaaz
b11010010010010 aaaba
b110101000010101 aaabb
b1111100010110 aaabc
b100111001010111 aaabd
b1100111011010 aaabe
b100111111111000 aaabf
b1100000101111 aaabg
b100111101101000 aaabh
b101000001100100 aaabi
b101110001000110 aaabj
b100110101100111 aaabk
b101100001110110 aaabl

#60
1aaaaa
b1110110000110100101001010011010 aaabm
b111111001010000001010110010100 aaabn
b1010000001001001000011001100010 aaabo
b1011001101010100001101111011011 aaabp
b111111011101010101011100010010 aaabq
b10001010001000110010111110100101 aaabr
b1011011001101101101101010111010 aaabs
b1000111101100010110111011010001 aaabt

#65
0aaaaa
b110011011111010 aaaac
b111110011111110 aaaad
b1001111010011 aaaae
b10011000111101 aaaaf
b1001100010110 aaaag
b10100001010010 aaaah
b10100111011000 aaaai
b11101110010111 aaaaj
b100100110111011 aaaak
b100100011011011 aaaal
b101000101000 aaaam
b100000000100111 aaaan
b110111100010001 aaaao
b10011100100101 aaaap
b100111001110 aaaaq
b1001110001010 aaaar
b111010010101101 aaaas
b1011001000011 aaaat
b101001000001011 aaaau
b10100101011001 aaaav
b100111010101110 aaaaw
b110111100101 aaaax
b110100011110101 aaaay
b101111001110110 aaaaz
b101110100100100 aaaba
b110111100111100 aaabb
b100010111000101 aaabc
b10100000101101 aaabd
b10110001000 aaabe
b110110011110100 aaabf
b11100101100000 aaabg
b110100111010000 aaabh
b101010101111001 aaabi
b101111101000101 aaabj
b11010001011001 aaabk
b111101011000010 aaabl

#70
1aaaaa
b1100111010010010110110100110101 aaabm
b111010100000100010101000000110 aaabn
b1010100100100011011001111100000 aaabo
b111111000001100011111100110100 aaabp
b1010011110101111111010100011001 aaabq
b1100010001100101100001010010000 aaabr
b1101010000001100110001011000111 aaabs
b1101000110111010111000100001100 aaabt

#75
0aaaaa
b110111111001001 aaaac
b111101001100001 aaaad
b111010111000001 aaaae
b11000011110001 aaaaf
b101110011001101 aaaag
b100101000000 aaaah
b100011010001100 aaaai
b101100000010101 aaaaj
b10011001101000 aaaak
b111000000010100 aaaal
b101010011010110 aaaam
b100010000011101 aaaan
b111100011010100 aaaao
b101001110110001 aaaap
b111010101001 aaaaq
b100110110011010 aaaar
b1000001001001 aaaas
b10100100111011 aaaat
b11111100001011 aaaau
b11001010010101 aaaav
b100001101010 aaaaw
b110101101010 aaaax
b11000010000111 aaaay
b11000001 aaaaz
b110010001111001 aaaba
b100000010100101 aaabb
b11111110010111 aaabc
b101101010011011 aaabd
b100001100100101 aaabe
b1110100010001 aaabf
b110010110001100 aaabg
b110011100001 aaabh
b100111000001000 aaabi
b10010100101000 aaabj
b100000100101111 aaabk
b100111111000000 aaabl

#80
1aaaaa
b1100001000100001001001110011111 aaabm
b1001011000010000001100011011100 aaabn
b1000110110010110011110001101010 aaabo
b1001100111000100101101011001111 aaabp
b101010110000100000000101000101 aaabq
b10001000110100100100101101001 aaabr
b1010100011011001100000110001001 aaabs
b110110100011011010011101000100 aaabt

#85
0aaaaa
b110111001111110 aaaac
b101000010111111 aaaad
b11100101000 aaaae
b1000000110000 aaaaf
b11111011101001 aaaag
b1011010011010 aaaah
b101000111010001 aaaai
b101101010011100 aaaaj
b101111110101000 aaaak
b10111111100111 aaaal
b1000011011001 aaaam
b100111011111110 aaaan
b11111110011010 aaaao
b1000011011001 aaaap
b110110001101100 aaaaq
b1101111011001 aaaar
b11000010100111 aaaas
b101111100100011 aaaat
b110111010100001 aaaau
b100001110001 aaaav
b110010010000110 aaaaw
b111100111010001 aaaax
b100110001100110 aaaay
b1010110011111 aaaaz
b100011011000010 aaaba
b100111001010101 aaabb
b101110001011110 aaabc
b100111111100010 aaabd
b10110110110101 aaabe
b1110010000 aaabf
b110110101001110 aaabg
b10101110100101 aaabh
b111101001010100 aaabi
b10101000111000 aaabj
b111100001 aaabk
b10100011100010 aaabl

#90
1aaaaa
b1000100110000001000100110101000 aaabm
b110000110110111111101110001101 aaabn
b1000010010110001110011110011101 aaabo
b100110011010011100000001111110 aaabp
b101001000110010001001010110111 aaabq
b1001000001000110100000110110100 aaabr
b111100001010100010001001100010 aaabs
b11110001100110101100000011100 aaabt

#95
0aaaaa
b10111100001100 aaaac
b101000010101001 aaaad
b100011000100110 aaaae
b110010100010010 aaaaf
b101010010011011 aaaag
b11001110000010 aaaah
b1110011011111 aaaai
b101111100110100 aaaaj
b110011010110100 aaaak
b10000001111001 aaaal
b10011111011010 aaaam
b100111010111111 aaaan
b110011101000111 aaaao
b1000101111010 aaaap
b111000101001 aaaaq
b10111000111001 aaaar
b100001101100101 aaaas
b110110101110110 aaaat
b110011101101101 aaaau
b110110110100110 aaaav
b100111000111000 aaaaw
b100001111000 aaaax
b1000100111110 aaaay
b1110100111111 aaaaz
b110011000101010 aaaba
b11011011000010 aaabb
b10010001100010 aaabc
b110111010001001 aaabd
b111001101000110 aaabe
b100100101100011 aaabf
b110010011100000 aaabg
b1110101011110 aaabh
b1001010001001 aaabi
b10011010110001 aaabj
b111001010010110 aaabk
b1111111110001 aaabl

#100
1aaaaa
b111011100110110011101001111011 aaabm
b100110101101100011101001110011 aaabn
b101000000000011011100010001000 aaabo
b10110001110010110110100001000 aaabp
b1010001011001011101010011000111 aaabq
b10010010011110101011010010011 aaabr
b101101101111111110010000000001 aaabs
b1000100010000001110111010100111 aaabt

#105
0aaaaa
b100010101101101 aaaac
b1110111001011 aaaad
b11001100000101 aaaae
b10001110 aaaaf
b111111000001110 aaaag
b1001011000010 aaaah
b11011101100101 aaaai
b100001101000110 aaaaj
b11011100011 aaaak
b1000000000011 aaaal
b111100100011011 aaaam
b111101000110110 aaaan
b101001101100 aaaao
b111011100111111 aaaap
b110101100101000 aaaaq
b11001100001000 aaaar
b100001100101000 aaaas
b101001000001 aaaat
b100010001100001 aaaau
b1111011011100 aaaav
b11011010100001 aaaaw
b11000000111 aaaax
b110101111001001 aaaay
b100101011110011 aaaaz
b110000011110 aaaba
b11110000100 aaabb
b101100011000101 aaabc
b10000010101000 aaabd
b10000100100000 aaabe
b10101100001111 aaabf
b11001011100111 aaabg
b101011110001101 aaabh
b111001000011101 aaabi
b111010100010100 aaabj
b10000100101100 aaabk
b111100011111110 aaabl

#110
1aaaaa
b110011011100100000100011110101 aaabm
b1100111101111011011111010001110 aaabn
b1010011110110000101101000101011 aaabo
b1100001001011110101011011111000 aaabp
b111010000100011110110110010000 aaabq
b1001100011111110100001001101111 aaabr
b100011110001100111001101000010 aaabs
b1010010011011101011010101100110 aaabt

#115
0aaaaa
b11011110111110 aaaac
b11000100000110 aaaad
b101100010000010 aaaae
b110111100110000 aaaaf
b111000111110010 aaaag
b10001100 aaaah
b110011010111110 aaaai
b101001001111111 aaaaj
b11101011 aaaak
b11010101111110 aaaal
b100001111011011 aaaam
b101101001110000 aaaan
b111100001110001 aaaao
b101010000111 aaaap
b101011111000010 aaaaq
b101011110000 aaaar
b100110011111111 aaaas
b101010001111000 aaaat
b1001001000110 aaaau
b100011010100111 aaaav
b110010010100000 aaaaw
b110110101110011 aaaax
b101100001000001 aaaay
b111100101010100 aaaaz
b100100111010000 aaaba
b100001001101 aaabb
b101110100101011 aaabc
b11110000110 aaabd
b1001000111011 aaabe
b110011111010000 aaabf
b110001110001100 aaabg
b10001100110010 aaabh
b1110001110101 aaabi
b101010010111110 aaabj
b1111111010 aaabk
b1001010010101 aaabl

#120
1aaaaa
b11111110111101010100000101110 aaabm
b10100011011100110010011111001 aaabn
b11001011011011000001011111001 aaabo
b10011000001111011101011111011 aaabp
b101001111011101010110100101010 aaabq
b111001100101111110110011011000 aaabr
b1100111100100011001100110010 aaabs
b101000011111011111000000101001 aaabt

#125
0aaaaa
b111110110101010 aaaac
b100001010111110 aaaad
b110001101001111 aaaae
b111111100001101 aaaaf
b100111101011011 aaaag
b111001101111101 aaaah
b110111101101000 aaaai
b10011110000 aaaaj
b10010101101000 aaaak
b110110011111 aaaal
b1101011110110 aaaam
b10000001000100 aaaan
b111011000010011 aaaao
b111001110001001 aaaap
b11101001110010 aaaaq
b1100000111010 aaaar
b10111100001011 aaaas
b11100010001010 aaaat
b1111011 aaaau
b1111110110100 aaaav
b101100011100110 aaaaw
b101001000001 aaaax
b110000000010100 aaaay
b1001110100110 aaaaz
b1101111111100 aaaba
b110010000011011 aaabb
b111010011001 aaabc
b100111101100110 aaabd
b1001111110101 aaabe
b1010111111101 aaabf
b11001111001101 aaabg
b111000101010011 aaabh
b1111011001010 aaabi
b111110010111000 aaabj
b10011111010011 aaabk
b111100000110011 aaabl

#130
1aaaaa
b1111010101110110101111101101000 aaabm
b1010101011101001111110000101110 aaabn
b11110011110101000001010100110 aaabo
b1011010111101000101100011111010 aaabp
b110000001010011011011100011011 aaabq
b100111110110111110101011000010 aaabr
b1011011101011111001110010101101 aaabs
b1001010011000010011011110101010 aaabt

#135
0aaaaa
b1100100001011 aaaac
b101000101110011 aaaad
b10110011010101 aaaae
b1001111110100 aaaaf
b110001111001011 aaaag
b100100011100110 aaaah
b10010110000 aaaai
b101001001111001 aaaaj
b101001010100001 aaaak
b11011000000101 aaaal
b110010111001010 aaaam
b11101000100111 aaaan
b101010000010000 aaaao
b111100010110100 aaaap
b1100100100111 aaaaq
b100110101011001 aaaar
b111010001011110 aaaas
b100010100110001 aaaat
b100011111111 aaaau
b101100101000010 aaaav
b11101001001100 aaaaw
b100101000001110 aaaax
b11000111011000 aaaay
b11100001111100 aaaaz
b111010111101100 aaaba
b100010010101010 aaabb
b100101110011101 aaabc
b101011110011100 aaabd
b101010100000011 aaabe
b10000010101101 aaabf
b100100010100 aaabg
b11001011000001 aaabh
b1001101001100 aaabi
b11001011001111 aaabj
b1100101001101 aaabk
b110101011111000 aaabl

#140
1aaaaa
b11110110100100011011110110010 aaabm
b111000111010100010011101100110 aaabn
b110011010011101111011001100001 aaabo
b1000001000110010000111000111111 aaabp
b111100101100000111001000101010 aaabq
b101111100111101011010111111010 aaabr
b1000010100110001100100111011111 aaabs
b100010111111110110111111000011 aaabt

#145
0aaaaa
b100101111001101 aaaac
b11100010010101 aaaad
b101110100111101 aaaae
b101110111101001 aaaaf
b1100110001100 aaaag
b101000001001100 aaaah
b111001010110001 aaaai
b101111101100111 aaaaj
b111100110000111 aaaak
b101101010110000 aaaal
b11001001100000 aaaam
b101111001000001 aaaan
b111000000100000 aaaao
b11001011010 aaaap
b11001011011110 aaaaq
b101111010100101 aaaar
b11001000100011 aaaas
b10010010001101 aaaat
b111001110110001 aaaau
b1000111010101 aaaav
b111111001100100 aaaaw
b10000101001110 aaaax
b10011110000000 aaaay
b1100110011111 aaaaz
b1011110111000 aaaba
b11010000101101 aaabb
b11000110101101 aaabc
b10001011100100 aaabd
b111001010100110 aaabe
b111001010011001 aaabf
b100100100001000 aaabg
b101011100011000 aaabh
b100100110000111 aaabi
b101101011100111 aaabj
b10110101000001 aaabk
b111010010011111 aaabl

#150
1aaaaa
b1100101001000000010101111000010 aaabm
b1100011100101011011101001010010 aaabn
b1110110111100101111001011000000 aaabo
b1010110100100010001110011101111 aaabp
b110111111101000000110011101100 aaabq
b1000010110010000010000101011111 aaabr
b110010000000111110001000101100 aaabs
b1111110001101001110100010001001 aaabt

#155
0aaaaa
b10111100010101 aaaac
b101110010011 aaaad
b100010101111 aaaae
b100010111001110 aaaaf
b100001001000010 aaaag
b101000101111 aaaah
b101011001111110 aaaai
b11001011010 aaaaj
b111000000000 aaaak
b100110110011 aaaal
b101110011001010 aaaam
b111110010111110 aaaan
b111010000100110 aaaao
b1110001111 aaaap
b1100101101111 aaaaq
b11101101100101 aaaar
b1100111111110 aaaas
b10110101110011 aaaat
b101100011010101 aaaau
b111110000100111 aaaav
b100001001001100 aaaaw
b10011101010011 aaaax
b100111011001111 aaaay
b101110100101010 aaaaz
b101001111010001 aaaba
b101100101000000 aaabb
b101001111010011 aaabc
b100001111110110 aaabd
b11100000100001 aaabe
b1001001000011 aaabf
b100010110100001 aaabg
b101011100000111 aaabh
b101100000000100 aaabi
b11001010001010 aaabj
b110010010101 aaabk
b101100010101101 aaabl

#160
1aaaaa
b101011000101000010010110100011 aaabm
b11111001111011101111010000110 aaabn
b110110011111110111111001110110 aaabo
b111110011101011001011010001010 aaabp
b1000001010001111010110001001010 aaabq
b1000010101100111000100111001011 aaabr
b1001010000110001110111011010001 aaabs
b111000011110000111000100010010 aaabt

#165
0aaaaa
b10111110100001 aaaac
b10100100110100 aaaad
b110101111011011 aaaae
b10010001100001 aaaaf
b11000110111110 aaaag
b11111000001001 aaaah
b111100010011101 aaaai
b1101101011 aaaaj
b11001100101 aaaak
b100101100 aaaal
b100111111001000 aaaam
b100111001101000 aaaan
b110011110100110 aaaao
b11100001001101 aaaap
b111111110100110 aaaaq
b11001000010010 aaaar
b1010110110100 aaaas
b100000100000001 aaaat
b11011011000 aaaau
b1001100010 aaaav
b11111001001 aaaaw
b100110110001111 aaaax
b100100000001011 aaaay
b1111111001 aaaaz
b10011111000000 aaaba
b110000100010111 aaabb
b110111010001000 aaabc
b11101001010100 aaabd
b110010001101001 aaabe
b11001101010110 aaabf
b11000110000001 aaabg
b110110111010000 aaabh
b1101100110010 aaabi
b10110011000110 aaabj
b10011100111000 aaabk
b111011111100111 aaabl

#170
1aaaaa
b101101110100111111011000011001 aaabm
b100100001101100110011111110111 aaabn
b110001110101000110001001011010 aaabo
b111111110111010100101010001000 aaabp
b1111110101101100011110011100 aaabq
b11011010010100000110011110011 aaabr
b1000001011101001010001011010110 aaabs
b1001110101010010110110111101110 aaabt

#175
0aaaaa
b11001101110001 aaaac
b11101100101001 aaaad
b10101110111000 aaaae
b1011101101101 aaaaf
b101110100010111 aaaag
b100101110011001 aaaah
b1110110110101 aaaai
b100010010001101 aaaaj
b100111001001000 aaaak
b100101101110010 aaaal
b110001010110000 aaaam
b111001101110100 aaaan
b110011101111000 aaaao
b100100011011011 aaaap
b10111110010101 aaaaq
b110001111011001 aaaar
b111000000001101 aaaas
b110100001110100 aaaat
b110111101010111 aaaau
b111101110001011 aaaav
b100101010010010 aaaaw
b101011000011100 aaaax
b111011110101 aaaay
b1100101000011 aaaaz
b100110000101001 aaaba
b10101111111010 aaabb
b101110011011111 aaabc
b111001101100101 aaabd
b101000011101 aaabe
b101001111 aaabf
b101000010000000 aaabg
b110011000010001 aaabh
b110010110000110 aaabi
b10001000110111 aaabj
b111001001101100 aaabk
b111101000001000 aaabl

#180
1aaaaa
b111011000000111011100011111101 aaabm
b1011100111110011101010110101101 aaabn
b10001100010001011010000100001110 aaabo
b1110111101000100011001110000001 aaabp
b10100111000011010111000111000110 aaabq
b111011110011101111101111100100 aaabr
b10000100100110001110101001101000 aaabs
b1011000110100011100001010101111 aaabt

#185
0aaaaa
b110110010100101 aaaac
b1010111100001 aaaad
b11110010001010 aaaae
b100100111011 aaaaf
b111000111110110 aaaag
b101101101100000 aaaah
b110000110001010 aaaai
b10001100110010 aaaaj
b101000001111001 aaaak
b11110110001111 aaaal
b1100010001111 aaaam
b101011010011011 aaaan
b1011110111101 aaaao
b101001101110 aaaap
b101110100100111 aaaaq
b110101101100001 aaaar
b100111011110111 aaaas
b110011100111100 aaaat
b111111101011100 aaaau
b100011101000000 aaaav
b10000111101011 aaaaw
b110110101111011 aaaax
b111110111 aaaay
b10111110000100 aaaaz
b10000000010101 aaaba
b111111110100 aaabb
b101001011100101 aaabc
b110001111000110 aaabd
b101110110111000 aaabe
b10011101011011 aaabf
b101100010000111 aaabg
b1110111000011 aaabh
b110010011100000 aaabi
b100100101100010 aaabj
b1011001001010 aaabk
b101000110110001 aaabl

#190
1aaaaa
b111001010011000111011000110001 aaabm
b1011010110100100101111101110110 aaabn
b1001111001000010101010100011111 aaabo
b110110101110000010101111010011 aaabp
b1011110100010000111000011110000 aaabq
b111100000101001101111101100000 aaabr
b111000010001010011101111100000 aaabs
b1000001011010100101110010101111 aaabt

#195
0aaaaa
b1110110100111 aaaac
b10110010011110 aaaad
b101010000101001 aaaae
b11111001001000 aaaaf
b1101000110000 aaaag
b101001001101010 aaaah
b111000000101000 aaaai
b101100110001 aaaaj
b111110001001010 aaaak
b10101111101111 aaaal
b100010010001010 aaaam
b100100001101100 aaaan
b10010000010000 aaaao
b11010100010000 aaaap
b100100011110110 aaaaq
b101101011001101 aaaar
b1011101110 aaaas
b11010101010000 aaaat
b11011101001 aaaau
b110001110100100 aaaav
b110001001110101 aaaaw
b101110011011 aaaax
b11101110011110 aaaay
b110111010011110 aaaaz
b1001101101111 aaaba
b100010111001000 aaabb
b10000101000111 aaabc
b110110011011110 aaabd
b11000000011 aaabe
b101100110000001 aaabf
b11011010100001 aaabg
b10010110000001 aaabh
b100101111 aaabi
b10101101000011 aaabj
b110111010000001 aaabk
b110111010100011 aaabl

#200
1aaaaa
b1000110111010111110111010000100 aaabm
b1000011010011000100000011101001 aaabn
b1000100111000100001101001110001 aaabo
b1001111110111101010000010011101 aaabp
b110111000100010101111001110111 aaabq
b1001011111101001101110001000100 aaabr
b1001001010010111101011111011010 aaabs
b110110111100010011100110010100 aaabt

#205
0aaaaa
b101001010001100 aaaac
b110111000111 aaaad
b101101111111 aaaae
b111110100111100 aaaaf
b101111110011000 aaaag
b10110101010000 aaaah
b11000101011101 aaaai
b101001011100101 aaaaj
b110101000010000 aaaak
b110100101011001 aaaal
b101011110001001 aaaam
b11011011110 aaaan
b110000111111111 aaaao
b11011010111111 aaaap
b110011101011111 aaaaq
b111010100000010 aaaar
b110111110011010 aaaas
b1010110111101 aaaat
b1001110111001 aaaau
b101000110011000 aaaav
b111010001000011 aaaaw
b11100 aaaax
b1001001001001 aaaay
b11011101000010 aaaaz
b111010011001101 aaaba
b101010000100111 aaabb
b11000110100 aaabc
b1010110010 aaabd
b100001011001111 aaabe
b110001100000011 aaabf
b10110001001110 aaabg
b1111100001101 aaabh
b11100001010111 aaabi
b100000101000 aaabj
b1001100000 aaabk
b11001000101011 aaabl

#210
1aaaaa
b101011010000010001101101100000 aaabm
b100111001011110011010001111111 aaabn
b11100110110110011001000000010 aaabo
b101111001100110010100001110111 aaabp
b101001011011010010011011000110 aaabq
b100100100101101010100010011011 aaabr
b11100111110001101101100101001 aaabs
b11000010110101000011101000000 aaabt

#215
0aaaaa
b101001110110110 aaaac
b1101101111110 aaaad
b1001101010000 aaaae
b10010100011000 aaaaf
b110010000010100 aaaag
b10011001111101 aaaah
b11101001101011 aaaai
b100100010011000 aaaaj
b1011101100 aaaak
b110010000011101 aaaal
b101101100010110 aaaam
b10010100101011 aaaan
b110100110111011 aaaao
b10101111011000 aaaap
b111111111010110 aaaaq
b100011000101100 aaaar
b1000110111000 aaaas
b11110110000100 aaaat
b110001101000011 aaaau
b101101100101110 aaaav
b101000100101111 aaaaw
b100110111010011 aaaax
b101001000100001 aaaay
b1111110001011 aaaaz
b100011001110011 aaaba
b110100011111 aaabb
b100111110000011 aaabc
b100010111111001 aaabd
b111110111100010 aaabe
b111111000000001 aaabf
b111100100011001 aaabg
b11111100001110 aaabh
b11101101010001 aaabi
b110000010111110 aaabj
b101100000010101 aaabk
b111100111011100 aaabl

